old/submarine_tb_case1.vcd
$date
	Tue Sep  2 22:44:26 2025
$end
$version
	Icarus Verilog
$end
$timescale
	1ps
$end
$scope module sub_marine_tb $end
$var wire 1 ! sink $end
$var wire 1 " hit $end
$var wire 1 # done $end
$var wire 1 $ busy $end
$var parameter 32 % WIDTH $end
$var reg 1 & clk $end
$var reg 1 ' cord_valid $end
$var reg 2 ( init_select [1:0] $end
$var reg 1 ) rstn $end
$var reg 1 * select_valid $end
$var reg 36 + sent_coords [35:0] $end
$var reg 3 , x [2:0] $end
$var reg 3 - y [2:0] $end
$var integer 32 . idx [31:0] $end
$var integer 32 / tries [31:0] $end
$scope module uut $end
$var wire 1 & clk $end
$var wire 1 ' cord_valid $end
$var wire 2 0 init_select [1:0] $end
$var wire 1 ) rstn $end
$var wire 1 * select_valid $end
$var wire 1 1 some_exists $end
$var wire 3 2 x [2:0] $end
$var wire 3 3 y [2:0] $end
$var wire 3 4 y_upper [2:0] $end
$var wire 3 5 y_lower [2:0] $end
$var wire 3 6 x_upper [2:0] $end
$var wire 3 7 x_lower [2:0] $end
$var wire 6 8 index [5:0] $end
$var parameter 2 9 CHECK_DONE $end
$var parameter 2 : CHECK_SINK $end
$var parameter 2 ; WAIT_FOR_COR $end
$var parameter 32 < WIDTH $end
$var reg 1 $ busy $end
$var reg 1 # done $end
$var reg 1 " hit $end
$var reg 6 = loop_i [5:0] $end
$var reg 36 > matrix [35:0] $end
$var reg 3 ? saved_x [2:0] $end
$var reg 3 @ saved_y [2:0] $end
$var reg 1 ! sink $end
$var reg 2 A state [1:0] $end
$upscope $end
$upscope $end
$enddefinitions $end
$comment Show the parameter values. $end
$dumpall
b110 <
b0 ;
b1 :
b10 9
b110 %
$end
#0
$dumpvars
bx A
bx @
bx ?
bx >
bx =
b0 8
bx 7
bx 6
bx 5
bx 4
b0 3
b0 2
x1
b0 0
bx /
bx .
b0 -
b0 ,
b0 +
0*
0)
b0 (
0'
0&
x$
x#
x"
x!
$end
#5000
01
b1 4
b0 5
b1 6
b0 7
b0 >
b0 =
b0 @
b0 ?
b0 A
0#
0!
0"
0$
1&
#10000
0&
1)
#15000
1&
#20000
0&
1*
b1 (
b1 0
#25000
b1010000001000000010111000000101100 >
1&
#30000
0&
0*
#35000
1&
#40000
0&
#45000
1&
#50000
b10100 8
1'
b10 -
b10 3
b11 ,
b11 2
b100000000000000000000 +
b10100 .
0&
b1 /
#55000
1&
#60000
b1001 8
b10 /
b11 -
b11 3
b1 ,
b1 2
b100000000001000000000 +
b1001 .
0&
#65000
1&
#70000
b0 8
b11 /
b0 -
b0 3
b0 ,
b0 2
b100000000001000000001 +
b0 .
0&
#75000
1&
#80000
b111 8
b100 /
b1 -
b1 3
b1 ,
b1 2
b100000000001010000001 +
b111 .
0&
#85000
1&
#90000
b10010 8
b101 /
b0 -
b0 3
b11 ,
b11 2
b101000000001010000001 +
b10010 .
0&
#95000
1&
#100000
b11011 8
b110 /
b11 -
b11 3
b100 ,
b100 2
b1000000101000000001010000001 +
b11011 .
0&
#105000
1&
#110000
b1 8
b111 /
b1 -
b1 3
b0 ,
b0 2
b1000000101000000001010000011 +
b1 .
0&
#115000
1&
#120000
b11010 8
b1000 /
b10 -
b10 3
b100 ,
b100 2
b1100000101000000001010000011 +
b11010 .
0&
#125000
1&
#130000
b10110 8
b1001 /
b100 -
b100 3
b11 ,
b11 2
b1100010101000000001010000011 +
b10110 .
0&
#135000
1&
#140000
b100010 8
b1010 /
b101 ,
b101 2
b10000001100010101000000001010000011 +
b100010 .
0&
#145000
1&
#150000
b100011 8
b1011 /
b101 -
b101 3
b110000001100010101000000001010000011 +
b100011 .
0&
#155000
1&
#160000
b1101 8
b1100 /
b1 -
b1 3
b10 ,
b10 2
b110000001100010101000010001010000011 +
b1101 .
0&
#165000
b1 A
1$
b1010000001000000010101000000101100 >
1&
#170000
b1101 /
0'
0&
#175000
1$
b10 A
1&
#180000
b1110 /
0&
#185000
b1 =
1&
#190000
b1111 /
0&
#195000
b10 =
1&
#200000
b10000 /
0&
#205000
1!
0$
b0 A
1&
#210000
b1011 8
b10001 /
1'
b101 -
b101 3
b1 ,
b1 2
b110000001100010101000010101010000011 +
b1011 .
0&
#215000
0!
1&
#220000
b1000 8
b10010 /
b10 -
b10 3
b110000001100010101000010101110000011 +
b1000 .
0&
#225000
1&
#230000
b11100 8
b10011 /
b100 -
b100 3
b100 ,
b100 2
b110000011100010101000010101110000011 +
b11100 .
0&
#235000
1&
#240000
b1110 8
b10100 /
b10 -
b10 3
b10 ,
b10 2
b110000011100010101000110101110000011 +
b1110 .
0&
#245000
b1 A
1$
b1010000001000000010001000000101100 >
1&
#250000
b10101 /
0'
0&
#255000
1$
b10 A
1&
#260000
b10110 /
0&
#265000
1!
0$
b0 A
1&
#270000
b10000 8
b10111 /
1'
b100 -
b100 3
b110000011100010101010110101110000011 +
b10000 .
0&
#275000
b1 A
1$
b1010000001000000000001000000101100 >
0!
1&
#280000
b11000 /
0'
0&
#285000
1$
b10 A
1&
#290000
b11001 /
0&
#295000
1!
0$
b0 A
1&
#300000
b11000 8
b11010 /
1'
b0 -
b0 3
b100 ,
b100 2
b110000011101010101010110101110000011 +
b11000 .
0&
#305000
b1 A
1$
b1010000000000000000001000000101100 >
0!
1&
#310000
b11011 /
0'
0&
#315000
1$
b10 A
1&
#320000
b11100 /
0&
#325000
1!
0$
b0 A
1&
#330000
b11 8
b11101 /
1'
b11 -
b11 3
b0 ,
b0 2
b110000011101010101010110101110001011 +
b11 .
0&
#335000
b1 A
1$
b1010000000000000000001000000100100 >
0!
1&
#340000
b11110 /
0'
0&
#345000
1$
b10 A
1&
#350000
b11111 /
0&
#355000
1!
0$
b0 A
1&
#360000
b11110 8
b100000 /
1'
b0 -
b0 3
b101 ,
b101 2
b110001011101010101010110101110001011 +
b11110 .
0&
#365000
0!
1&
#370000
b1010 8
b100001 /
b100 -
b100 3
b1 ,
b1 2
b110001011101010101010110111110001011 +
b1010 .
0&
#375000
1&
#380000
b101 8
b100010 /
b101 -
b101 3
b0 ,
b0 2
b110001011101010101010110111110101011 +
b101 .
0&
#385000
b1 A
1$
b1010000000000000000001000000000100 >
1&
#390000
b100011 /
0'
0&
#395000
1$
b10 A
1&
#400000
b100100 /
0&
#405000
1!
0$
b0 A
1&
#410000
b11001 8
b100101 /
1'
b1 -
b1 3
b100 ,
b100 2
b110001011111010101010110111110101011 +
b11001 .
0&
#415000
0!
1&
#420000
b1100 8
b100110 /
b0 -
b0 3
b10 ,
b10 2
b110001011111010101010111111110101011 +
b1100 .
0&
#425000
b1 A
1$
b1010000000000000000000000000000100 >
1&
#430000
b100111 /
0'
0&
#435000
1$
b10 A
1&
#440000
b101000 /
0&
#445000
1!
0$
b0 A
1&
#450000
b100 8
b101001 /
1'
b100 -
b100 3
b0 ,
b0 2
b110001011111010101010111111110111011 +
b100 .
0&
#455000
0!
1&
#460000
b1111 8
b101010 /
b11 -
b11 3
b10 ,
b10 2
b110001011111010101011111111110111011 +
b1111 .
0&
#465000
1&
#470000
b11111 8
b101011 /
b1 -
b1 3
b101 ,
b101 2
b110011011111010101011111111110111011 +
b11111 .
0&
#475000
b1 A
1$
b1000000000000000000000000000000100 >
1&
#480000
b101100 /
0'
0&
#485000
1$
b10 A
1&
#490000
b101101 /
0&
#495000
1!
0$
b0 A
1&
#500000
b10111 8
b101110 /
1'
b101 -
b101 3
b11 ,
b11 2
b110011011111110101011111111110111011 +
b10111 .
0&
#505000
0!
1&
#510000
b10011 8
b101111 /
b1 -
b1 3
b110011011111110111011111111110111011 +
b10011 .
0&
#515000
1&
#520000
b100001 8
b110000 /
b11 -
b11 3
b101 ,
b101 2
b111011011111110111011111111110111011 +
b100001 .
0&
#525000
b1 A
1$
b100 >
1&
#530000
b110001 /
0'
0&
#535000
1$
b10 A
1&
#540000
b110010 /
0&
#545000
1!
0$
b0 A
1&
#550000
b11101 8
b110011 /
1'
b101 -
b101 3
b100 ,
b100 2
b111011111111110111011111111110111011 +
b11101 .
0&
#555000
0!
1&
#560000
b110 8
b110100 /
b0 -
b0 3
b1 ,
b1 2
b111011111111110111011111111111111011 +
b110 .
0&
#565000
1&
#570000
b100000 8
b110101 /
b10 -
b10 3
b101 ,
b101 2
b111111111111110111011111111111111011 +
b100000 .
0&
#575000
1&
#580000
b10 8
b110110 /
b0 ,
b0 2
b111111111111110111011111111111111111 +
b10 .
0&
#585000
b1 A
1$
b0 >
1&
#590000
b110111 /
0'
0&
#595000
1$
b10 A
1&
#600000
b111000 /
0&
#605000
b11 =
1&
#610000
b111001 /
0&
#615000
b100 =
1&
#620000
b111010 /
0&
#625000
b101 =
1&
#630000
b111011 /
0&
#635000
b110 =
1&
#640000
b111100 /
0&
#645000
b111 =
1&
#650000
b111101 /
0&
#655000
b1000 =
1&
#660000
b111110 /
0&
#665000
b1001 =
1&
#670000
b111111 /
0&
#675000
b1010 =
1&
#680000
b1000000 /
0&
#685000
b1011 =
1&
#690000
b1000001 /
0&
#695000
b1100 =
1&
#700000
b1000010 /
0&
#705000
b1101 =
1&
#710000
b1000011 /
0&
#715000
b1110 =
1&
#720000
b1000100 /
0&
#725000
b1111 =
1&
#730000
b1000101 /
0&
#735000
b10000 =
1&
#740000
b1000110 /
0&
#745000
b10001 =
1&
#750000
b1000111 /
0&
#755000
b10010 =
1&
#760000
b1001000 /
0&
#765000
b10011 =
1&
#770000
b1001001 /
0&
#775000
b10100 =
1&
#780000
b1001010 /
0&
#785000
b10101 =
1&
#790000
b1001011 /
0&
#795000
b10110 =
1&
#800000
b1001100 /
0&
#805000
b10111 =
1&
#810000
b1001101 /
0&
#815000
b11000 =
1&
#820000
b1001110 /
0&
#825000
b11001 =
1&
#830000
b1001111 /
0&
#835000
b11010 =
1&
#840000
b1010000 /
0&
#845000
b11011 =
1&
#850000
b1010001 /
0&
#855000
b11100 =
1&
#860000
b1010010 /
0&
#865000
b11101 =
1&
#870000
b1010011 /
0&
#875000
b11110 =
1&
#880000
b1010100 /
0&
#885000
b11111 =
1&
#890000
b1010101 /
0&
#895000
b100000 =
1&
#900000
b1010110 /
0&
#905000
b100001 =
1&
#910000
b1010111 /
0&
#915000
b100010 =
1&
#920000
b1011000 /
0&
#925000
b100011 =
1&
#930000
b1011001 /
0&
#935000
1#
1&
#940000
b1011010 /
0&
