old/submarine_tb.vcd
$date
	Sun Sep  7 12:04:44 2025
$end
$version
	Icarus Verilog
$end
$timescale
	1ps
$end
$scope module submarine_tb $end
$var wire 1 ! sink $end
$var wire 1 " hit $end
$var wire 1 # done $end
$var wire 1 $ busy $end
$var parameter 32 % WIDTH $end
$var reg 1 & clk $end
$var reg 1 ' cord_valid $end
$var reg 2 ( init_select [1:0] $end
$var reg 1 ) rstn $end
$var reg 1 * select_valid $end
$var reg 36 + sent_coords [35:0] $end
$var reg 3 , x [2:0] $end
$var reg 3 - y [2:0] $end
$var integer 32 . idx [31:0] $end
$var integer 32 / tries [31:0] $end
$scope module uut $end
$var wire 1 & clk $end
$var wire 1 ' cord_valid $end
$var wire 2 0 init_select [1:0] $end
$var wire 1 ) rstn $end
$var wire 1 * select_valid $end
$var wire 3 1 x [2:0] $end
$var wire 3 2 y [2:0] $end
$var wire 3 3 mem_y_muxed [2:0] $end
$var wire 3 4 mem_x_muxed [2:0] $end
$var wire 1 5 matrix_mem_data_out $end
$var wire 6 6 index [5:0] $end
$var wire 1 $ busy $end
$var wire 1 7 bfs_sink $end
$var wire 3 8 bfs_mem_y [2:0] $end
$var wire 3 9 bfs_mem_x [2:0] $end
$var wire 1 : bfs_done $end
$var parameter 2 ; BLANK $end
$var parameter 3 < CHECK_COR $end
$var parameter 3 = CHECK_DONE $end
$var parameter 3 > CHECK_DONE_FIRST $end
$var parameter 3 ? CHECK_SINK $end
$var parameter 3 @ CLEAR_BIT $end
$var parameter 3 A DELAY $end
$var parameter 2 B GRAY $end
$var parameter 3 C WAIT_FOR_COR $end
$var parameter 2 D WHITE $end
$var parameter 32 E WIDTH $end
$var reg 1 F bfs_start $end
$var reg 1 # done $end
$var reg 1 " hit $end
$var reg 6 G loop_i [5:0] $end
$var reg 1 H matrix_mem_data_in $end
$var reg 3 I mem_x [2:0] $end
$var reg 3 J mem_y [2:0] $end
$var reg 3 K next_state [2:0] $end
$var reg 1 ! sink $end
$var reg 3 L state [2:0] $end
$var reg 64 M state_name [63:0] $end
$var reg 1 N wr_en $end
$scope module bfs_instance $end
$var wire 1 F bfs_start $end
$var wire 1 & clk $end
$var wire 1 O found $end
$var wire 3 P out_mem_x [2:0] $end
$var wire 3 Q out_mem_y [2:0] $end
$var wire 1 ) rstn $end
$var wire 3 R x [2:0] $end
$var wire 3 S y [2:0] $end
$var wire 3 T y_upper [2:0] $end
$var wire 3 U y_lower [2:0] $end
$var wire 3 V x_right [2:0] $end
$var wire 3 W x_left [2:0] $end
$var wire 1 5 mem_data_in $end
$var wire 1 X bfs_matrix_data_out $end
$var wire 6 Y bfs_index [5:0] $end
$var parameter 4 Z BFS_CLEAR $end
$var parameter 4 [ BFS_DONE $end
$var parameter 4 \ BFS_LOAD $end
$var parameter 4 ] BFS_START $end
$var parameter 4 ^ CHECK_FOUND $end
$var parameter 4 _ DELAY $end
$var parameter 32 ` MAX_SUBMARINE_SIZE $end
$var parameter 32 a MAX_SUBMARINE_SIZE_log2 $end
$var parameter 32 b WIDTH $end
$var parameter 4 c X_L $end
$var parameter 4 d X_R $end
$var parameter 4 e Y_D $end
$var parameter 4 f Y_U $end
$var reg 1 : bfs_done $end
$var reg 1 g bfs_mem_data_in $end
$var reg 3 h bfs_mem_x [2:0] $end
$var reg 3 i bfs_mem_y [2:0] $end
$var reg 4 j bfs_next_state [3:0] $end
$var reg 1 7 bfs_sink $end
$var reg 4 k bfs_state [3:0] $end
$var reg 64 l bfs_state_name [63:0] $end
$var reg 1 m bfs_wr_en $end
$var reg 1 n found_gray $end
$var reg 1 o found_white $end
$var reg 3 p gray_x [2:0] $end
$var reg 3 q gray_y [2:0] $end
$var reg 3 r orig_x [2:0] $end
$var reg 3 s orig_y [2:0] $end
$scope module bfs_matrix $end
$var wire 1 & clk $end
$var wire 1 g data_in $end
$var wire 2 t init_select [1:0] $end
$var wire 1 ) rstn $end
$var wire 1 u select_valid $end
$var wire 1 m wr_en $end
$var wire 3 v x [2:0] $end
$var wire 3 w y [2:0] $end
$var wire 6 x index [5:0] $end
$var parameter 32 y WIDTH $end
$var reg 1 X data_out $end
$var reg 36 z matrix [35:0] $end
$upscope $end
$upscope $end
$scope module matrix $end
$var wire 1 & clk $end
$var wire 1 H data_in $end
$var wire 2 { init_select [1:0] $end
$var wire 1 ) rstn $end
$var wire 1 * select_valid $end
$var wire 1 N wr_en $end
$var wire 3 | x [2:0] $end
$var wire 3 } y [2:0] $end
$var wire 6 ~ index [5:0] $end
$var parameter 32 !" WIDTH $end
$var reg 1 5 data_out $end
$var reg 36 "" matrix [35:0] $end
$upscope $end
$upscope $end
$upscope $end
$enddefinitions $end
$comment Show the parameter values. $end
$dumpall
b110 !"
b110 y
b100 f
b101 e
b10 d
b11 c
b110 b
b10 a
b100 `
b1111 _
b110 ^
b1 ]
b0 \
b1110 [
b1000 Z
b110 E
b1 D
b0 C
b10 B
b110 A
b11 @
b10 ?
b100 >
b101 =
b1 <
b0 ;
b110 %
$end
#0
$dumpvars
b0 ""
b0 ~
b0 }
b0 |
b0 {
b0 z
b0 x
b0 w
b0 v
0u
b0 t
b0 s
b0 r
b0 q
b0 p
0o
0n
0m
b1001100010011110100000101000100 l
b0 k
b0 j
b0 i
b0 h
0g
b0 Y
0X
b0 W
b1 V
b0 U
b1 T
b0 S
b0 R
b0 Q
b0 P
0O
xN
b10101110101111101000011010011110101001001000100 M
b0 L
bx K
b0 J
b0 I
0H
b0 G
0F
0:
b0 9
b0 8
07
b0 6
05
b0 4
b0 3
b0 2
b0 1
b0 0
bx /
bx .
b0 -
b0 ,
b0 +
0*
0)
b0 (
0'
0&
0$
0#
0"
0!
$end
#5000
1&
#10000
0&
1)
#15000
1&
#20000
0&
1*
b1 (
b1 0
b1 {
#25000
b0 K
b1010000001000000010111000000101100 ""
1&
#30000
0&
0*
#35000
1&
#40000
0&
#45000
1&
#50000
b10100 6
1'
b10 -
b10 2
b11 ,
b11 1
b100000000000000000000 +
b10100 .
0&
b1 /
#55000
b10100 ~
b100010001000101010011000100000101011001 M
b10 3
b10 }
b11 4
b11 |
b1 K
1$
b110 L
0N
b10 J
b10 S
b11 I
b11 R
1&
#60000
b10 /
0'
0&
#65000
b10000110101111101000011010011110101001001000100 M
b1 L
1&
#70000
b11 /
0&
#75000
b10101110101111101000011010011110101001001000100 M
0$
b0 L
1&
#80000
b1001 6
b100 /
1'
b11 -
b11 2
b1 ,
b1 1
b100000000001000000000 +
b1001 .
0&
#85000
b1001 ~
b100010001000101010011000100000101011001 M
b11 3
b11 }
b1 4
b1 |
1$
b110 L
b11 J
b11 S
b1 I
b1 R
1&
#90000
b101 /
0'
0&
#95000
b10000110101111101000011010011110101001001000100 M
b1 L
1&
#100000
b110 /
0&
#105000
b10101110101111101000011010011110101001001000100 M
0$
b0 L
1&
#110000
b0 6
b111 /
1'
b0 -
b0 2
b0 ,
b0 1
b100000000001000000001 +
b0 .
0&
#115000
b0 ~
b100010001000101010011000100000101011001 M
b0 3
b0 }
b0 4
b0 |
1$
b110 L
b0 J
b0 S
b0 I
b0 R
1&
#120000
b1000 /
0'
0&
#125000
b10000110101111101000011010011110101001001000100 M
b1 L
1&
#130000
b1001 /
0&
#135000
b10101110101111101000011010011110101001001000100 M
0$
b0 L
1&
#140000
b111 6
b1010 /
1'
b1 -
b1 2
b1 ,
b1 1
b100000000001010000001 +
b111 .
0&
#145000
b111 ~
b100010001000101010011000100000101011001 M
b1 3
b1 }
b1 4
b1 |
1$
b110 L
b1 J
b1 S
b1 I
b1 R
1&
#150000
b1011 /
0'
0&
#155000
b10000110101111101000011010011110101001001000100 M
b1 L
1&
#160000
b1100 /
0&
#165000
b10101110101111101000011010011110101001001000100 M
0$
b0 L
1&
#170000
b10010 6
b1101 /
1'
b0 -
b0 2
b11 ,
b11 1
b101000000001010000001 +
b10010 .
0&
#175000
b10010 ~
b100010001000101010011000100000101011001 M
b0 3
b0 }
b11 4
b11 |
1$
b110 L
b0 J
b0 S
b11 I
b11 R
1&
#180000
b1110 /
0'
0&
#185000
b10000110101111101000011010011110101001001000100 M
b1 L
1&
#190000
b1111 /
0&
#195000
b10101110101111101000011010011110101001001000100 M
0$
b0 L
1&
#200000
b11011 6
b10000 /
1'
b11 -
b11 2
b100 ,
b100 1
b1000000101000000001010000001 +
b11011 .
0&
#205000
b11011 ~
b100010001000101010011000100000101011001 M
b11 3
b11 }
b100 4
b100 |
1$
b110 L
b11 J
b11 S
b100 I
b100 R
1&
#210000
b10001 /
0'
0&
#215000
b10000110101111101000011010011110101001001000100 M
b1 L
1&
#220000
b10010 /
0&
#225000
b10101110101111101000011010011110101001001000100 M
0$
b0 L
1&
#230000
b1 6
b10011 /
1'
b1 -
b1 2
b0 ,
b0 1
b1000000101000000001010000011 +
b1 .
0&
#235000
b1 ~
b100010001000101010011000100000101011001 M
b1 3
b1 }
b0 4
b0 |
1$
b110 L
b1 J
b1 S
b0 I
b0 R
1&
#240000
b10100 /
0'
0&
#245000
b10000110101111101000011010011110101001001000100 M
b1 L
1&
#250000
b10101 /
0&
#255000
b10101110101111101000011010011110101001001000100 M
0$
b0 L
1&
#260000
b11010 6
b10110 /
1'
b10 -
b10 2
b100 ,
b100 1
b1100000101000000001010000011 +
b11010 .
0&
#265000
b11010 ~
b100010001000101010011000100000101011001 M
b10 3
b10 }
b100 4
b100 |
1$
b110 L
b10 J
b10 S
b100 I
b100 R
1&
#270000
b10111 /
0'
0&
#275000
b10000110101111101000011010011110101001001000100 M
b1 L
1&
#280000
b11000 /
0&
#285000
b10101110101111101000011010011110101001001000100 M
0$
b0 L
1&
#290000
b10110 6
b11001 /
1'
b100 -
b100 2
b11 ,
b11 1
b1100010101000000001010000011 +
b10110 .
0&
#295000
b10110 ~
b100010001000101010011000100000101011001 M
b100 3
b100 }
b11 4
b11 |
1$
b110 L
b100 J
b100 S
b11 I
b11 R
1&
#300000
b11010 /
0'
0&
#305000
b10000110101111101000011010011110101001001000100 M
b1 L
1&
#310000
b11011 /
0&
#315000
b10101110101111101000011010011110101001001000100 M
0$
b0 L
1&
#320000
b100010 6
b11100 /
1'
b101 ,
b101 1
b10000001100010101000000001010000011 +
b100010 .
0&
#325000
b100010 ~
b100010001000101010011000100000101011001 M
b101 4
b101 |
1$
b110 L
b101 I
b101 R
1&
#330000
b11101 /
0'
0&
#335000
b10000110101111101000011010011110101001001000100 M
b1 L
1&
#340000
b11110 /
0&
#345000
b10101110101111101000011010011110101001001000100 M
0$
b0 L
1&
#350000
b100011 6
b11111 /
1'
b101 -
b101 2
b110000001100010101000000001010000011 +
b100011 .
0&
#355000
b100011 ~
b100010001000101010011000100000101011001 M
b101 3
b101 }
1$
b110 L
b101 J
b101 S
1&
#360000
b100000 /
0'
0&
#365000
b10000110101111101000011010011110101001001000100 M
b1 L
1&
#370000
b100001 /
0&
#375000
b10101110101111101000011010011110101001001000100 M
0$
b0 L
1&
#380000
b1101 6
b100010 /
1'
b1 -
b1 2
b10 ,
b10 1
b110000001100010101000010001010000011 +
b1101 .
0&
#385000
b1101 ~
b100010001000101010011000100000101011001 M
b1 3
b1 }
b10 4
b10 |
1$
b110 L
b1 J
b1 S
b10 I
b10 R
1&
#390000
b100011 /
0'
0&
#395000
b10000110101111101000011010011110101001001000100 M
b1 L
15
1&
#400000
b100100 /
0&
#405000
b100010001000101010011000100000101011001 M
b10 K
b110 L
1N
1&
#410000
b100101 /
0&
#415000
b10000110101111101010011010010010100111001001011 M
b1010000001000000010101000000101100 ""
b10 L
1&
#420000
b100110 /
0&
#425000
b0 ~
b0 4
b0 |
b0 3
b0 }
0N
1F
05
1&
#430000
b100111 /
0&
#435000
b101001101010100010000010101001001010100 l
b10 T
b11 V
b1 W
b1 k
b1 s
b10 r
1&
#440000
b101000 /
0&
#445000
b100010001000101010011000100000101011001 l
b111 ~
b1 3
b1 }
b111 Y
b111 x
b1 4
b1 |
b11 j
b1111 k
b1 8
b1 Q
b1 i
b1 w
b1 9
b1 P
b1 h
b1 v
1&
#450000
b101001 /
0&
#455000
b10110000101111101001100 l
b11 k
1&
#460000
b101010 /
0&
#465000
b100010001000101010011000100000101011001 l
b10011 ~
b10011 Y
b10011 x
b11 4
b11 |
b10 j
b1111 k
b11 9
b11 P
b11 h
b11 v
1&
#470000
b101011 /
0&
#475000
b10110000101111101010010 l
b10 k
1&
#480000
b101100 /
0&
#485000
b100010001000101010011000100000101011001 l
b1110 ~
b10 3
b10 }
b1110 Y
b1110 x
b10 4
b10 |
b100 j
b1111 k
b10 8
b10 Q
b10 i
b10 w
b10 9
b10 P
b10 h
b10 v
1&
#490000
b101101 /
0&
#495000
b10110010101111101010101 l
b100 k
15
1&
#500000
b101110 /
0&
#505000
b100010001000101010011000100000101011001 l
b1100 ~
b1100 Y
b1100 x
b0 3
b0 }
1O
b101 j
b1111 k
b0 8
b0 Q
b0 i
b0 w
1o
1&
#510000
b101111 /
0&
#515000
b10110010101111101000100 l
b101 k
1&
#520000
b110000 /
0&
#525000
b1000011010111110100011001001111010101010100111001000100 l
b1101 ~
b1101 Y
b1101 x
b1 3
b1 }
b110 k
b1 8
b1 Q
b1 i
b1 w
1&
#530000
b110001 /
0&
#535000
b100010001000101010011000100000101011001 l
b1110 j
b1111 k
1g
1m
05
1&
#540000
b110010 /
0&
#545000
b1000100010011110100111001000101 l
0m
b1110 k
b10000000000000 z
1&
#550000
b110011 /
0&
#555000
1:
1X
1&
#560000
b110100 /
0&
#565000
b10101110101111101000011010011110101001001000100 M
0F
1"
0$
b0 L
1&
#570000
b1011 6
b110101 /
1'
b101 -
b101 2
b1 ,
b1 1
b110000001100010101000010101010000011 +
b1011 .
0&
#575000
b1001100010011110100000101000100 l
b1011 ~
b100010001000101010011000100000101011001 M
b101 3
b101 }
b1 4
b1 |
0:
b0 k
b1 K
1$
b110 L
b101 J
b101 S
b1 I
b1 R
0"
1&
#580000
b110110 /
0'
0&
#585000
b10000110101111101000011010011110101001001000100 M
b1 L
1&
#590000
b110111 /
0&
#595000
b10101110101111101000011010011110101001001000100 M
0$
b0 L
1&
#600000
b1000 6
b111000 /
1'
b10 -
b10 2
b110000001100010101000010101110000011 +
b1000 .
0&
#605000
b1000 ~
b100010001000101010011000100000101011001 M
b10 3
b10 }
1$
b110 L
b10 J
b10 S
1&
#610000
b111001 /
0'
0&
#615000
b10000110101111101000011010011110101001001000100 M
b1 L
1&
#620000
b111010 /
0&
#625000
b10101110101111101000011010011110101001001000100 M
0$
b0 L
1&
#630000
b11100 6
b111011 /
1'
b100 -
b100 2
b100 ,
b100 1
b110000011100010101000010101110000011 +
b11100 .
0&
#635000
b11100 ~
b100010001000101010011000100000101011001 M
b100 3
b100 }
b100 4
b100 |
1$
b110 L
b100 J
b100 S
b100 I
b100 R
1&
#640000
b111100 /
0'
0&
#645000
b10000110101111101000011010011110101001001000100 M
b1 L
1&
#650000
b111101 /
0&
#655000
b10101110101111101000011010011110101001001000100 M
0$
b0 L
1&
#660000
b1110 6
b111110 /
1'
b10 -
b10 2
b10 ,
b10 1
b110000011100010101000110101110000011 +
b1110 .
0&
#665000
b1110 ~
b100010001000101010011000100000101011001 M
b10 3
b10 }
b10 4
b10 |
1$
b110 L
b10 J
b10 S
b10 I
b10 R
1&
#670000
b111111 /
0'
0&
#675000
b10000110101111101000011010011110101001001000100 M
b1 L
15
1&
#680000
b1000000 /
0&
#685000
b100010001000101010011000100000101011001 M
b10 K
b110 L
1N
1&
#690000
b1000001 /
0&
#695000
b10000110101111101010011010010010100111001001011 M
b1010000001000000010001000000101100 ""
b10 L
1&
#700000
b1000010 /
0&
#705000
b1101 ~
b1 3
b1 }
0N
1F
05
1&
#710000
b1000011 /
0&
#715000
b101001101010100010000010101001001010100 l
0O
b11 T
b1 U
b1 k
0o
b10 s
1&
#720000
b1000100 /
0&
#725000
b100010001000101010011000100000101011001 l
b1000 ~
b10 3
b10 }
b1000 Y
b1000 x
b1 4
b1 |
b11 j
b1111 k
b10 8
b10 Q
b10 i
b10 w
b1 9
b1 P
b1 h
b1 v
1&
#730000
b1000101 /
0&
#735000
b10110000101111101001100 l
b11 k
0X
1&
#740000
b1000110 /
0&
#745000
b100010001000101010011000100000101011001 l
b10100 ~
b10100 Y
b10100 x
b11 4
b11 |
b10 j
b1111 k
b11 9
b11 P
b11 h
b11 v
1&
#750000
b1000111 /
0&
#755000
b10110000101111101010010 l
b10 k
1&
#760000
b1001000 /
0&
#765000
b100010001000101010011000100000101011001 l
b1111 ~
b11 3
b11 }
b1111 Y
b1111 x
b10 4
b10 |
b100 j
b1111 k
b11 8
b11 Q
b11 i
b11 w
b10 9
b10 P
b10 h
b10 v
1&
#770000
b1001001 /
0&
#775000
b10110010101111101010101 l
b100 k
1&
#780000
b1001010 /
0&
#785000
b100010001000101010011000100000101011001 l
b1101 ~
b1101 Y
b1101 x
b1 3
b1 }
b101 j
b1111 k
b1 8
b1 Q
b1 i
b1 w
1&
#790000
b1001011 /
0&
#795000
b10110010101111101000100 l
b101 k
1X
1&
#800000
b1001100 /
0&
#805000
b1000011010111110100011001001111010101010100111001000100 l
1O
b110 k
b1 q
b10 p
1n
1&
#810000
b1001101 /
0&
#815000
b100010001000101010011000100000101011001 l
b1110 ~
b1110 Y
b1110 x
b10 3
b10 }
b1000 j
b10 8
b10 Q
b10 i
b10 w
b1111 k
0g
1m
1&
#820000
b1001110 /
0&
#825000
b100001101001100010001010100000101010010 l
0m
b1000 k
0X
1&
#830000
b1001111 /
0&
#835000
b101001101010100010000010101001001010100 l
0O
b10 T
b0 U
b1 k
0n
b1 s
1&
#840000
b1010000 /
0&
#845000
b100010001000101010011000100000101011001 l
b111 ~
b1 3
b1 }
b111 Y
b111 x
b1 4
b1 |
b11 j
b1111 k
b1 8
b1 Q
b1 i
b1 w
b1 9
b1 P
b1 h
b1 v
1&
#850000
b1010001 /
0&
#855000
b10110000101111101001100 l
b11 k
1&
#860000
b1010010 /
0&
#865000
b100010001000101010011000100000101011001 l
b10011 ~
b10011 Y
b10011 x
b11 4
b11 |
b10 j
b1111 k
b11 9
b11 P
b11 h
b11 v
1&
#870000
b1010011 /
0&
#875000
b10110000101111101010010 l
b10 k
1&
#880000
b1010100 /
0&
#885000
b100010001000101010011000100000101011001 l
b1110 ~
b10 3
b10 }
b1110 Y
b1110 x
b10 4
b10 |
b100 j
b1111 k
b10 8
b10 Q
b10 i
b10 w
b10 9
b10 P
b10 h
b10 v
1&
#890000
b1010101 /
0&
#895000
b10110010101111101010101 l
b100 k
1&
#900000
b1010110 /
0&
#905000
b100010001000101010011000100000101011001 l
b1100 ~
b1100 Y
b1100 x
b0 3
b0 }
b101 j
b1111 k
b0 8
b0 Q
b0 i
b0 w
1&
#910000
b1010111 /
0&
#915000
b10110010101111101000100 l
b101 k
15
1&
#920000
b1011000 /
0&
#925000
b1000011010111110100011001001111010101010100111001000100 l
1O
b110 k
1o
1&
#930000
b1011001 /
0&
#935000
b100010001000101010011000100000101011001 l
b1110 j
b1111 k
1g
1m
1&
#940000
b1011010 /
0&
#945000
b1000100010011110100111001000101 l
0m
b1110 k
b11000000000000 z
1&
#950000
b1011011 /
0&
#955000
1:
1X
1&
#960000
b1011100 /
0&
#965000
b1110 ~
b10 3
b10 }
b10101110101111101000011010011110101001001000100 M
0F
1"
0$
b0 L
1&
#970000
b10000 6
b1011101 /
1'
b100 -
b100 2
b110000011100010101010110101110000011 +
b10000 .
0&
#975000
b1001100010011110100000101000100 l
b10000 ~
b100010001000101010011000100000101011001 M
b100 3
b100 }
0:
b0 k
b1 K
1$
b110 L
b100 J
b100 S
0"
05
1&
#980000
b1011110 /
0'
0&
#985000
b10000110101111101000011010011110101001001000100 M
b1 L
15
1&
#990000
b1011111 /
0&
#995000
b100010001000101010011000100000101011001 M
b10 K
b110 L
1N
1&
#1000000
b1100000 /
0&
#1005000
b10000110101111101010011010010010100111001001011 M
b10 L
b1010000001000000000001000000101100 ""
1&
#1010000
b1100001 /
0&
#1015000
b1100 ~
b0 3
b0 }
0N
1F
05
1&
#1020000
b1100010 /
0&
#1025000
b101001101010100010000010101001001010100 l
0O
b101 T
b11 U
b1 k
0o
b100 s
15
1&
#1030000
b1100011 /
0&
#1035000
b100010001000101010011000100000101011001 l
b1010 ~
b100 3
b100 }
b1010 Y
b1010 x
b1 4
b1 |
b11 j
b1111 k
b100 8
b100 Q
b100 i
b100 w
b1 9
b1 P
b1 h
b1 v
1&
#1040000
b1100100 /
0&
#1045000
b10110000101111101001100 l
b11 k
0X
05
1&
#1050000
b1100101 /
0&
#1055000
b100010001000101010011000100000101011001 l
b10110 ~
b10110 Y
b10110 x
b11 4
b11 |
b10 j
b1111 k
b11 9
b11 P
b11 h
b11 v
1&
#1060000
b1100110 /
0&
#1065000
b10110000101111101010010 l
b10 k
1&
#1070000
b1100111 /
0&
#1075000
b100010001000101010011000100000101011001 l
b10001 ~
b101 3
b101 }
b10001 Y
b10001 x
b10 4
b10 |
b100 j
b1111 k
b101 8
b101 Q
b101 i
b101 w
b10 9
b10 P
b10 h
b10 v
1&
#1080000
b1101000 /
0&
#1085000
b10110010101111101010101 l
b100 k
1&
#1090000
b1101001 /
0&
#1095000
b100010001000101010011000100000101011001 l
b1111 ~
b1111 Y
b1111 x
b11 3
b11 }
b101 j
b1111 k
b11 8
b11 Q
b11 i
b11 w
1&
#1100000
b1101010 /
0&
#1105000
b10110010101111101000100 l
b101 k
1&
#1110000
b1101011 /
0&
#1115000
b1000011010111110100011001001111010101010100111001000100 l
b110 k
1&
#1120000
b1101100 /
0&
#1125000
b100010001000101010011000100000101011001 l
17
b1110 j
b1111 k
0g
1m
1&
#1130000
b1101101 /
0&
#1135000
b1000100010011110100111001000101 l
0m
b1110 k
1&
#1140000
b1101110 /
0&
#1145000
1:
1&
#1150000
b1101111 /
0&
#1155000
b10000 ~
b100 3
b100 }
b1000011010111110100010001001111010011100100010100110001 M
0F
b100 L
1&
#1160000
b1110000 /
0&
#1165000
b1001100010011110100000101000100 l
b0 ~
b100010001000101010011000100000101011001 M
b0 3
b0 }
b0 4
b0 |
b101 K
b110 L
b0 J
b0 S
b0 I
b0 R
07
0:
b0 k
1&
#1170000
b1110001 /
0&
#1175000
b10000110101111101000100010011110100111001000101 M
b101 L
1&
#1180000
b1110010 /
0&
#1185000
b110 ~
b100010001000101010011000100000101011001 M
b1 4
b1 |
b110 L
b1 I
b1 R
b1 G
1&
#1190000
b1110011 /
0&
#1195000
b10000110101111101000100010011110100111001000101 M
b101 L
1&
#1200000
b1110100 /
0&
#1205000
b1100 ~
b100010001000101010011000100000101011001 M
b10 4
b10 |
b110 L
b10 I
b10 R
b10 G
1&
#1210000
b1110101 /
0&
#1215000
b10000110101111101000100010011110100111001000101 M
b101 L
15
1&
#1220000
b1110110 /
0&
#1225000
b10101110101111101000011010011110101001001000100 M
1!
b0 G
0$
b0 L
1&
#1230000
b11000 6
b1110111 /
1'
b0 -
b0 2
b100 ,
b100 1
b110000011101010101010110101110000011 +
b11000 .
0&
#1235000
b11000 ~
b100010001000101010011000100000101011001 M
b100 4
b100 |
b1 K
1$
b110 L
b100 I
b100 R
0!
1&
#1240000
b1111000 /
0'
0&
#1245000
b10000110101111101000011010011110101001001000100 M
b1 L
1&
#1250000
b1111001 /
0&
#1255000
b100010001000101010011000100000101011001 M
b10 K
b110 L
1N
1&
#1260000
b1111010 /
0&
#1265000
b10000110101111101010011010010010100111001001011 M
b10 L
b1010000000000000000001000000101100 ""
1&
#1270000
b1111011 /
0&
#1275000
b1111 ~
b10 4
b10 |
b11 3
b11 }
0N
1F
05
1&
#1280000
b1111100 /
0&
#1285000
b101001101010100010000010101001001010100 l
b1 T
b0 U
b101 V
b11 W
b1 k
b0 s
b100 r
1&
#1290000
b1111101 /
0&
#1295000
b100010001000101010011000100000101011001 l
b10010 ~
b0 3
b0 }
b10010 Y
b10010 x
b11 4
b11 |
b11 j
b1111 k
b0 8
b0 Q
b0 i
b0 w
b11 9
b11 P
b11 h
b11 v
1&
#1300000
b1111110 /
0&
#1305000
b10110000101111101001100 l
b11 k
1&
#1310000
b1111111 /
0&
#1315000
b100010001000101010011000100000101011001 l
b11110 ~
b11110 Y
b11110 x
b101 4
b101 |
b10 j
b1111 k
b101 9
b101 P
b101 h
b101 v
1&
#1320000
b10000000 /
0&
#1325000
b10110000101111101010010 l
b10 k
1&
#1330000
b10000001 /
0&
#1335000
b100010001000101010011000100000101011001 l
b11001 ~
b1 3
b1 }
b11001 Y
b11001 x
b100 4
b100 |
b100 j
b1111 k
b1 8
b1 Q
b1 i
b1 w
b100 9
b100 P
b100 h
b100 v
1&
#1340000
b10000010 /
0&
#1345000
b10110010101111101010101 l
b100 k
1&
#1350000
b10000011 /
0&
#1355000
b100010001000101010011000100000101011001 l
b11000 ~
b11000 Y
b11000 x
b0 3
b0 }
b101 j
b1111 k
b0 8
b0 Q
b0 i
b0 w
1&
#1360000
b10000100 /
0&
#1365000
b10110010101111101000100 l
b101 k
1&
#1370000
b10000101 /
0&
#1375000
b1000011010111110100011001001111010101010100111001000100 l
b110 k
1&
#1380000
b10000110 /
0&
#1385000
b100010001000101010011000100000101011001 l
17
b1110 j
b1111 k
1m
1&
#1390000
b10000111 /
0&
#1395000
b1000100010011110100111001000101 l
0m
b1110 k
1&
#1400000
b10001000 /
0&
#1405000
1:
1&
#1410000
b10001001 /
0&
#1415000
b1000011010111110100010001001111010011100100010100110001 M
0F
b100 L
1&
#1420000
b10001010 /
0&
#1425000
b1001100010011110100000101000100 l
b0 ~
b100010001000101010011000100000101011001 M
b0 4
b0 |
b101 K
b110 L
b0 I
b0 R
07
0:
b0 k
1&
#1430000
b10001011 /
0&
#1435000
b10000110101111101000100010011110100111001000101 M
b101 L
1&
#1440000
b10001100 /
0&
#1445000
b110 ~
b100010001000101010011000100000101011001 M
b1 4
b1 |
b110 L
b1 I
b1 R
b1 G
1&
#1450000
b10001101 /
0&
#1455000
b10000110101111101000100010011110100111001000101 M
b101 L
1&
#1460000
b10001110 /
0&
#1465000
b1100 ~
b100010001000101010011000100000101011001 M
b10 4
b10 |
b110 L
b10 I
b10 R
b10 G
1&
#1470000
b10001111 /
0&
#1475000
b10000110101111101000100010011110100111001000101 M
b101 L
15
1&
#1480000
b10010000 /
0&
#1485000
b10101110101111101000011010011110101001001000100 M
1!
b0 G
0$
b0 L
1&
#1490000
b11 6
b10010001 /
1'
b11 -
b11 2
b0 ,
b0 1
b110000011101010101010110101110001011 +
b11 .
0&
#1495000
b11 ~
b100010001000101010011000100000101011001 M
b11 3
b11 }
b0 4
b0 |
b1 K
1$
b110 L
b11 J
b11 S
b0 I
b0 R
0!
1&
#1500000
b10010010 /
0'
0&
#1505000
b10000110101111101000011010011110101001001000100 M
b1 L
1&
#1510000
b10010011 /
0&
#1515000
b100010001000101010011000100000101011001 M
b10 K
b110 L
1N
1&
#1520000
b10010100 /
0&
#1525000
b10000110101111101010011010010010100111001001011 M
b10 L
b1010000000000000000001000000100100 ""
1&
#1530000
b10010101 /
0&
#1535000
b11000 ~
b100 4
b100 |
b0 3
b0 }
0N
1F
05
1&
#1540000
b10010110 /
0&
#1545000
b101001101010100010000010101001001010100 l
b100 T
b10 U
b1 V
b0 W
b1 k
b11 s
b0 r
1&
#1550000
b10010111 /
0&
#1555000
b100010001000101010011000100000101011001 l
b11 ~
b11 3
b11 }
b11 Y
b11 x
b0 4
b0 |
b11 j
b1111 k
b11 8
b11 Q
b11 i
b11 w
b0 9
b0 P
b0 h
b0 v
1&
#1560000
b10011000 /
0&
#1565000
b10110000101111101001100 l
b11 k
1&
#1570000
b10011001 /
0&
#1575000
b100010001000101010011000100000101011001 l
b1001 ~
b1001 Y
b1001 x
b1 4
b1 |
b10 j
b1111 k
b1 9
b1 P
b1 h
b1 v
1&
#1580000
b10011010 /
0&
#1585000
b10110000101111101010010 l
b10 k
1&
#1590000
b10011011 /
0&
#1595000
b100010001000101010011000100000101011001 l
b100 ~
b100 3
b100 }
b100 Y
b100 x
b0 4
b0 |
b100 j
b1111 k
b100 8
b100 Q
b100 i
b100 w
b0 9
b0 P
b0 h
b0 v
1&
#1600000
b10011100 /
0&
#1605000
b10110010101111101010101 l
b100 k
1&
#1610000
b10011101 /
0&
#1615000
b100010001000101010011000100000101011001 l
b10 ~
b10 Y
b10 x
b10 3
b10 }
b101 j
b1111 k
b10 8
b10 Q
b10 i
b10 w
1&
#1620000
b10011110 /
0&
#1625000
b10110010101111101000100 l
b101 k
15
1&
#1630000
b10011111 /
0&
#1635000
b1000011010111110100011001001111010101010100111001000100 l
1O
b110 k
1o
1&
#1640000
b10100000 /
0&
#1645000
b100010001000101010011000100000101011001 l
b1110 j
b1111 k
1g
1m
1&
#1650000
b10100001 /
0&
#1655000
b1000100010011110100111001000101 l
b11000000000100 z
0m
b1110 k
1&
#1660000
b10100010 /
0&
#1665000
1:
1X
1&
#1670000
b10100011 /
0&
#1675000
b11 ~
b11 3
b11 }
b10101110101111101000011010011110101001001000100 M
0F
1"
0$
b0 L
1&
#1680000
b11110 6
b10100100 /
1'
b0 -
b0 2
b101 ,
b101 1
b110001011101010101010110101110001011 +
b11110 .
0&
#1685000
b1001100010011110100000101000100 l
b11110 ~
b100010001000101010011000100000101011001 M
b0 3
b0 }
b101 4
b101 |
b1 K
1$
b110 L
b0 J
b0 S
b101 I
b101 R
0"
0:
b0 k
05
1&
#1690000
b10100101 /
0'
0&
#1695000
b10000110101111101000011010011110101001001000100 M
b1 L
1&
#1700000
b10100110 /
0&
#1705000
b10101110101111101000011010011110101001001000100 M
0$
b0 L
1&
