vcd/submarine_tb.vcd
$date
	Mon Nov  3 09:45:01 2025
$end
$version
	Icarus Verilog
$end
$timescale
	1ps
$end
$scope module submarine_tb $end
$var wire 1 ! sink $end
$var wire 1 " hit $end
$var wire 1 # done $end
$var wire 1 $ busy $end
$var parameter 32 % MAX_CLOCK_CYCLES $end
$var parameter 32 & MAX_GAMES $end
$var parameter 32 ' WIDTH $end
$var reg 1 ( clk $end
$var reg 1 ) cord_valid $end
$var reg 1 * game_failed $end
$var reg 2 + init_select [1:0] $end
$var reg 1 , rstn $end
$var reg 36 - sent_coords [35:0] $end
$var reg 3 . x [2:0] $end
$var reg 3 / y [2:0] $end
$var integer 32 0 clock_count [31:0] $end
$var integer 32 1 failed_games [31:0] $end
$var integer 32 2 game_num [31:0] $end
$var integer 32 3 idx [31:0] $end
$var integer 32 4 successful_games [31:0] $end
$var integer 32 5 total_clock_cycles [31:0] $end
$scope module uut $end
$var wire 1 ( clk $end
$var wire 1 ) cord_valid $end
$var wire 2 6 init_select [1:0] $end
$var wire 1 7 mem_sel $end
$var wire 1 , rstn $end
$var wire 3 8 x [2:0] $end
$var wire 3 9 y [2:0] $end
$var wire 1 ! sink $end
$var wire 1 : mem_empty $end
$var wire 1 ; mem_data_out_valid $end
$var wire 2 < mem_data_out [1:0] $end
$var wire 1 " hit $end
$var wire 3 = game_mem_y [2:0] $end
$var wire 3 > game_mem_x [2:0] $end
$var wire 1 ? game_mem_data_in_valid $end
$var wire 1 # done $end
$var wire 1 $ busy $end
$var wire 1 @ bfs_start $end
$var wire 1 A bfs_sink $end
$var wire 1 B bfs_mem_wr_en $end
$var wire 2 C bfs_mem_wr_data [1:0] $end
$var wire 1 D bfs_mem_in_valid $end
$var wire 3 E bfs_mem_addr_y [2:0] $end
$var wire 3 F bfs_mem_addr_x [2:0] $end
$var wire 1 G bfs_done $end
$var parameter 32 H WIDTH $end
$scope module bfs_inst $end
$var wire 1 ( clk $end
$var wire 1 I found $end
$var wire 1 , rstn $end
$var wire 3 J y_upper [2:0] $end
$var wire 3 K y_lower [2:0] $end
$var wire 3 L y [2:0] $end
$var wire 3 M x_right [2:0] $end
$var wire 3 N x_left [2:0] $end
$var wire 3 O x [2:0] $end
$var wire 1 ; mem_ready $end
$var wire 2 P mem_rd_data [1:0] $end
$var wire 1 @ bfs_start $end
$var parameter 4 Q BFS_CHECK $end
$var parameter 4 R BFS_CLEAR $end
$var parameter 4 S BFS_DONE $end
$var parameter 4 T BFS_LOAD $end
$var parameter 3 U CHECK_DELAY $end
$var parameter 3 V CHECK_FOUND $end
$var parameter 3 W CHECK_IDLE $end
$var parameter 4 X DELAY $end
$var parameter 32 Y WIDTH $end
$var parameter 3 Z X_L $end
$var parameter 3 [ X_R $end
$var parameter 3 \ Y_D $end
$var parameter 3 ] Y_U $end
$var reg 1 G bfs_done $end
$var reg 4 ^ bfs_next_state [3:0] $end
$var reg 1 A bfs_sink $end
$var reg 4 _ bfs_state [3:0] $end
$var reg 64 ` bfs_state_name [63:0] $end
$var reg 3 a cell_count [2:0] $end
$var reg 1 b check_done_sig $end
$var reg 3 c check_next_state [2:0] $end
$var reg 1 d check_start $end
$var reg 3 e check_state [2:0] $end
$var reg 64 f check_state_name [63:0] $end
$var reg 1 g found_gray $end
$var reg 1 h found_white $end
$var reg 3 i gray_x [2:0] $end
$var reg 3 j gray_y [2:0] $end
$var reg 3 k mem_addr_x [2:0] $end
$var reg 3 l mem_addr_y [2:0] $end
$var reg 1 D mem_in_valid $end
$var reg 2 m mem_wr_data [1:0] $end
$var reg 1 B mem_wr_en $end
$var reg 3 n orig_x [2:0] $end
$var reg 3 o orig_y [2:0] $end
$upscope $end
$scope module game $end
$var wire 1 G bfs_done $end
$var wire 1 A bfs_sink $end
$var wire 1 $ busy $end
$var wire 1 ( clk $end
$var wire 1 ) cord_valid $end
$var wire 1 , rstn $end
$var wire 3 p x [2:0] $end
$var wire 3 q y [2:0] $end
$var wire 1 : mem_empty $end
$var wire 1 ; mem_data_out_valid $end
$var wire 2 r mem_data_out [1:0] $end
$var wire 6 s index [5:0] $end
$var parameter 3 t CHECK_COR $end
$var parameter 3 u CHECK_SINK $end
$var parameter 3 v DELAY $end
$var parameter 3 w DONE $end
$var parameter 3 x WAIT_FOR_COR $end
$var parameter 32 y WIDTH $end
$var reg 1 @ bfs_start $end
$var reg 1 # done $end
$var reg 1 " hit $end
$var reg 1 ? mem_data_in_valid $end
$var reg 3 z mem_x [2:0] $end
$var reg 3 { mem_y [2:0] $end
$var reg 3 | next_state [2:0] $end
$var reg 1 ! sink $end
$var reg 3 } state [2:0] $end
$var reg 64 ~ state_name [63:0] $end
$upscope $end
$scope module memory $end
$var wire 1 ( clk $end
$var wire 2 !" in1_data_in [1:0] $end
$var wire 1 ? in1_data_in_valid $end
$var wire 1 "" in1_wr_en $end
$var wire 3 #" in1_x [2:0] $end
$var wire 3 $" in1_y [2:0] $end
$var wire 2 %" in2_data_in [1:0] $end
$var wire 1 D in2_data_in_valid $end
$var wire 1 B in2_wr_en $end
$var wire 3 &" in2_x [2:0] $end
$var wire 3 '" in2_y [2:0] $end
$var wire 1 7 in_sel $end
$var wire 2 (" init_select [1:0] $end
$var wire 2 )" m00 [1:0] $end
$var wire 2 *" m01 [1:0] $end
$var wire 2 +" m02 [1:0] $end
$var wire 2 ," m03 [1:0] $end
$var wire 2 -" m04 [1:0] $end
$var wire 2 ." m05 [1:0] $end
$var wire 2 /" m10 [1:0] $end
$var wire 2 0" m11 [1:0] $end
$var wire 2 1" m12 [1:0] $end
$var wire 2 2" m13 [1:0] $end
$var wire 2 3" m14 [1:0] $end
$var wire 2 4" m15 [1:0] $end
$var wire 2 5" m20 [1:0] $end
$var wire 2 6" m21 [1:0] $end
$var wire 2 7" m22 [1:0] $end
$var wire 2 8" m23 [1:0] $end
$var wire 2 9" m24 [1:0] $end
$var wire 2 :" m25 [1:0] $end
$var wire 2 ;" m30 [1:0] $end
$var wire 2 <" m31 [1:0] $end
$var wire 2 =" m32 [1:0] $end
$var wire 2 >" m33 [1:0] $end
$var wire 2 ?" m34 [1:0] $end
$var wire 2 @" m35 [1:0] $end
$var wire 2 A" m40 [1:0] $end
$var wire 2 B" m41 [1:0] $end
$var wire 2 C" m42 [1:0] $end
$var wire 2 D" m43 [1:0] $end
$var wire 2 E" m44 [1:0] $end
$var wire 2 F" m45 [1:0] $end
$var wire 2 G" m50 [1:0] $end
$var wire 2 H" m51 [1:0] $end
$var wire 2 I" m52 [1:0] $end
$var wire 2 J" m53 [1:0] $end
$var wire 2 K" m54 [1:0] $end
$var wire 2 L" m55 [1:0] $end
$var wire 1 , rstn $end
$var wire 3 M" y [2:0] $end
$var wire 3 N" x [2:0] $end
$var wire 1 O" wr_en $end
$var wire 12 P" row5_flat [11:0] $end
$var wire 12 Q" row4_flat [11:0] $end
$var wire 12 R" row3_flat [11:0] $end
$var wire 12 S" row2_flat [11:0] $end
$var wire 12 T" row1_flat [11:0] $end
$var wire 12 U" row0_flat [11:0] $end
$var wire 6 V" index [5:0] $end
$var wire 1 W" data_in_valid $end
$var wire 2 X" data_in [1:0] $end
$var parameter 32 Y" WIDTH $end
$var reg 2 Z" data_out [1:0] $end
$var reg 1 ; data_out_valid $end
$var reg 1 : empty $end
$var integer 32 [" col [31:0] $end
$var integer 32 \" k [31:0] $end
$var integer 32 ]" row [31:0] $end
$scope begin row_signals[0] $end
$var parameter 2 ^" i $end
$upscope $end
$scope begin row_signals[1] $end
$var parameter 2 _" i $end
$upscope $end
$scope begin row_signals[2] $end
$var parameter 3 `" i $end
$upscope $end
$scope begin row_signals[3] $end
$var parameter 3 a" i $end
$upscope $end
$scope begin row_signals[4] $end
$var parameter 4 b" i $end
$upscope $end
$scope begin row_signals[5] $end
$var parameter 4 c" i $end
$upscope $end
$scope begin $ivl_for_loop0 $end
$var integer 32 d" i [31:0] $end
$upscope $end
$scope begin $ivl_for_loop1 $end
$var integer 32 e" i [31:0] $end
$upscope $end
$scope begin $ivl_for_loop2 $end
$var integer 32 f" i [31:0] $end
$upscope $end
$scope begin $ivl_for_loop3 $end
$var integer 32 g" i [31:0] $end
$upscope $end
$upscope $end
$upscope $end
$upscope $end
$enddefinitions $end
$comment Show the parameter values. $end
$dumpall
b101 c"
b100 b"
b11 a"
b10 `"
b1 _"
b0 ^"
b110 Y"
b110 y
b0 x
b11 w
b110 v
b10 u
b1 t
b11 ]
b100 \
b10 [
b1 Z
b110 Y
b1111 X
b0 W
b101 V
b110 U
b0 T
b1110 S
b1000 R
b10 Q
b110 H
b110 '
b1010 &
b1111101000 %
$end
#0
$dumpvars
bx g"
bx f"
b100100 e"
bx d"
b110 ]"
b100100 \"
b110 ["
b0 Z"
b0 X"
0W"
b0 V"
b10001010000 U"
b0 T"
b100010101 S"
b0 R"
b1 Q"
b1000100 P"
0O"
b0 N"
b0 M"
b0 L"
b0 K"
b1 J"
b0 I"
b1 H"
b0 G"
b0 F"
b0 E"
b0 D"
b0 C"
b0 B"
b1 A"
b0 @"
b0 ?"
b0 >"
b0 ="
b0 <"
b0 ;"
b0 :"
b1 9"
b0 8"
b1 7"
b1 6"
b1 5"
b0 4"
b0 3"
b0 2"
b0 1"
b0 0"
b0 /"
b1 ."
b0 -"
b1 ,"
b1 +"
b0 *"
b0 )"
b1 ("
b0 '"
b0 &"
b0 %"
b0 $"
b0 #"
0""
b0 !"
b10101110101111101000011010011110101001001000100 ~
b0 }
bx |
b0 {
b0 z
b0 s
b0 r
b0 q
b0 p
b0 o
b0 n
b0 m
b0 l
b0 k
b0 j
b0 i
0h
0g
b1001001010001000100110001000101 f
b0 e
0d
b0 c
0b
b0 a
b1001100010011110100000101000100 `
b0 _
b0 ^
b0 P
b0 O
b0 N
b1 M
b0 L
b0 K
b1 J
0I
0G
b0 F
b0 E
0D
b0 C
0B
0A
0@
0?
b0 >
b0 =
b0 <
0;
0:
b0 9
b0 8
07
b1 6
b0 5
b0 4
bx 3
b1 2
b0 1
b0 0
b0 /
b0 .
b0 -
0,
b1 +
0*
0)
0(
0$
0#
0"
0!
$end
#5000
b100100 e"
1(
#10000
0(
#15000
b100100 e"
1(
#20000
0(
1,
#25000
1(
#30000
0(
#35000
1(
#40000
b10100 s
1)
b10 /
b10 9
b10 q
b11 .
b11 8
b11 p
b100000000000000000000 -
b10100 3
b1 0
0(
#45000
b10100 V"
b100010001000101010011000100000101011001 ~
1$
1W"
b10 M"
b11 N"
b1 |
b110 }
1?
b10 =
b10 L
b10 {
b10 $"
b11 >
b11 O
b11 z
b11 #"
1(
#50000
0)
b10 0
0(
#55000
0W"
1;
0?
1(
#60000
b11 0
0(
#65000
b10000110101111101000011010011110101001001000100 ~
b1 }
0;
1(
#70000
b100 0
0(
#75000
b10101110101111101000011010011110101001001000100 ~
0$
b0 }
1(
#80000
b1001 s
1)
b11 /
b11 9
b11 q
b1 .
b1 8
b1 p
b100000000001000000000 -
b1001 3
b101 0
0(
#85000
b1001 V"
b100010001000101010011000100000101011001 ~
1$
1W"
b11 M"
b1 N"
b110 }
1?
b11 =
b11 L
b11 {
b11 $"
b1 >
b1 O
b1 z
b1 #"
1(
#90000
0)
b110 0
0(
#95000
0W"
1;
0?
1(
#100000
b111 0
0(
#105000
b10000110101111101000011010011110101001001000100 ~
b1 }
0;
1(
#110000
b1000 0
0(
#115000
b10101110101111101000011010011110101001001000100 ~
0$
b0 }
1(
#120000
b0 s
1)
b0 /
b0 9
b0 q
b0 .
b0 8
b0 p
b100000000001000000001 -
b0 3
b1001 0
0(
#125000
b0 V"
b100010001000101010011000100000101011001 ~
1$
1W"
b0 M"
b0 N"
b110 }
1?
b0 =
b0 L
b0 {
b0 $"
b0 >
b0 O
b0 z
b0 #"
1(
#130000
0)
b1010 0
0(
#135000
0W"
1;
0?
1(
#140000
b1011 0
0(
#145000
b10000110101111101000011010011110101001001000100 ~
b1 }
0;
1(
#150000
b1100 0
0(
#155000
b10101110101111101000011010011110101001001000100 ~
0$
b0 }
1(
#160000
b111 s
1)
b1 /
b1 9
b1 q
b1 .
b1 8
b1 p
b100000000001010000001 -
b111 3
b1101 0
0(
#165000
b111 V"
b100010001000101010011000100000101011001 ~
1$
1W"
b1 M"
b1 N"
b110 }
1?
b1 =
b1 L
b1 {
b1 $"
b1 >
b1 O
b1 z
b1 #"
1(
#170000
0)
b1110 0
0(
#175000
0W"
1;
0?
1(
#180000
b1111 0
0(
#185000
b10000110101111101000011010011110101001001000100 ~
b1 }
0;
1(
#190000
b10000 0
0(
#195000
b10101110101111101000011010011110101001001000100 ~
0$
b0 }
1(
#200000
b10010 s
1)
b0 /
b0 9
b0 q
b11 .
b11 8
b11 p
b101000000001010000001 -
b10010 3
b10001 0
0(
#205000
b10010 V"
b100010001000101010011000100000101011001 ~
1$
1W"
b0 M"
b11 N"
b110 }
1?
b0 =
b0 L
b0 {
b0 $"
b11 >
b11 O
b11 z
b11 #"
1(
#210000
0)
b10010 0
0(
#215000
0W"
1;
0?
1(
#220000
b10011 0
0(
#225000
b10000110101111101000011010011110101001001000100 ~
b1 }
0;
1(
#230000
b10100 0
0(
#235000
b10101110101111101000011010011110101001001000100 ~
0$
b0 }
1(
#240000
b11011 s
1)
b11 /
b11 9
b11 q
b100 .
b100 8
b100 p
b1000000101000000001010000001 -
b11011 3
b10101 0
0(
#245000
b11011 V"
b100010001000101010011000100000101011001 ~
1$
1W"
b11 M"
b100 N"
b110 }
1?
b11 =
b11 L
b11 {
b11 $"
b100 >
b100 O
b100 z
b100 #"
1(
#250000
0)
b10110 0
0(
#255000
0W"
1;
0?
1(
#260000
b10111 0
0(
#265000
b10000110101111101000011010011110101001001000100 ~
b1 }
0;
1(
#270000
b11000 0
0(
#275000
b10101110101111101000011010011110101001001000100 ~
0$
b0 }
1(
#280000
b1 s
1)
b1 /
b1 9
b1 q
b0 .
b0 8
b0 p
b1000000101000000001010000011 -
b1 3
b11001 0
0(
#285000
b1 V"
b100010001000101010011000100000101011001 ~
1$
1W"
b1 M"
b0 N"
b110 }
1?
b1 =
b1 L
b1 {
b1 $"
b0 >
b0 O
b0 z
b0 #"
1(
#290000
0)
b11010 0
0(
#295000
0W"
1;
0?
1(
#300000
b11011 0
0(
#305000
b10000110101111101000011010011110101001001000100 ~
b1 }
0;
1(
#310000
b11100 0
0(
#315000
b10101110101111101000011010011110101001001000100 ~
0$
b0 }
1(
#320000
b11010 s
1)
b10 /
b10 9
b10 q
b100 .
b100 8
b100 p
b1100000101000000001010000011 -
b11010 3
b11101 0
0(
#325000
b11010 V"
b100010001000101010011000100000101011001 ~
1$
1W"
b10 M"
b100 N"
b110 }
1?
b10 =
b10 L
b10 {
b10 $"
b100 >
b100 O
b100 z
b100 #"
1(
#330000
0)
b11110 0
0(
#335000
0W"
1;
0?
1(
#340000
b11111 0
0(
#345000
b10000110101111101000011010011110101001001000100 ~
b1 }
0;
1(
#350000
b100000 0
0(
#355000
b10101110101111101000011010011110101001001000100 ~
0$
b0 }
1(
#360000
b10110 s
1)
b100 /
b100 9
b100 q
b11 .
b11 8
b11 p
b1100010101000000001010000011 -
b10110 3
b100001 0
0(
#365000
b10110 V"
b100010001000101010011000100000101011001 ~
1$
1W"
b100 M"
b11 N"
b110 }
1?
b100 =
b100 L
b100 {
b100 $"
b11 >
b11 O
b11 z
b11 #"
1(
#370000
0)
b100010 0
0(
#375000
0W"
1;
0?
1(
#380000
b100011 0
0(
#385000
b10000110101111101000011010011110101001001000100 ~
b1 }
0;
1(
#390000
b100100 0
0(
#395000
b10101110101111101000011010011110101001001000100 ~
0$
b0 }
1(
#400000
b100010 s
1)
b101 .
b101 8
b101 p
b10000001100010101000000001010000011 -
b100010 3
b100101 0
0(
#405000
b100010 V"
b100010001000101010011000100000101011001 ~
1$
1W"
b101 N"
b110 }
1?
b101 >
b101 O
b101 z
b101 #"
1(
#410000
0)
b100110 0
0(
#415000
0W"
1;
0?
1(
#420000
b100111 0
0(
#425000
b10000110101111101000011010011110101001001000100 ~
b1 }
0;
1(
#430000
b101000 0
0(
#435000
b10101110101111101000011010011110101001001000100 ~
0$
b0 }
1(
#440000
b100011 s
1)
b101 /
b101 9
b101 q
b110000001100010101000000001010000011 -
b100011 3
b101001 0
0(
#445000
b100011 V"
b100010001000101010011000100000101011001 ~
1$
1W"
b101 M"
b110 }
1?
b101 =
b101 L
b101 {
b101 $"
1(
#450000
0)
b101010 0
0(
#455000
0W"
1;
0?
1(
#460000
b101011 0
0(
#465000
b10000110101111101000011010011110101001001000100 ~
b1 }
0;
1(
#470000
b101100 0
0(
#475000
b10101110101111101000011010011110101001001000100 ~
0$
b0 }
1(
#480000
b1101 s
1)
b1 /
b1 9
b1 q
b10 .
b10 8
b10 p
b110000001100010101000010001010000011 -
b1101 3
b101101 0
0(
#485000
b1101 V"
b100010001000101010011000100000101011001 ~
1$
1W"
b1 M"
b10 N"
b110 }
1?
b1 =
b1 L
b1 {
b1 $"
b10 >
b10 O
b10 z
b10 #"
1(
#490000
0)
b101110 0
0(
#495000
0W"
1;
b1 <
b1 P
b1 r
b1 Z"
0?
1(
#500000
b101111 0
0(
#505000
b10000110101111101000011010011110101001001000100 ~
b1 }
0;
1(
#510000
b110000 0
0(
#515000
b10000110101111101010011010010010100111001001011 ~
b10 }
1(
#520000
b110001 0
0(
#525000
b0 V"
b0 N"
b0 M"
17
1@
1(
#530000
b110010 0
0(
#535000
b100001101001000010001010100001101001011 `
b10 J
b11 M
b1 N
b10 _
b1 o
b10 n
1(
#540000
b110011 0
0(
#545000
1d
1(
#550000
b110100 0
0(
#555000
b1000011010111110100010001000101010011000100000101011001 f
b111 V"
1W"
b1 M"
b1 N"
b1 c
b110 e
1D
b1 E
b1 l
b1 '"
b1 F
b1 k
b1 &"
1(
#560000
b110101 0
0(
#565000
0W"
0D
1;
b0 <
b0 P
b0 r
b0 Z"
1(
#570000
b110110 0
0(
#575000
b10110000101111101001100 f
0;
b1 e
1(
#580000
b110111 0
0(
#585000
b1000011010111110100010001000101010011000100000101011001 f
b10011 V"
1W"
b11 N"
b10 c
b110 e
1D
b11 F
b11 k
b11 &"
1(
#590000
b111000 0
0(
#595000
0W"
1;
0D
1(
#600000
b111001 0
0(
#605000
b10110000101111101010010 f
b10 e
0;
1(
#610000
b111010 0
0(
#615000
b1000011010111110100010001000101010011000100000101011001 f
b1110 V"
1W"
b10 M"
b10 N"
b11 c
b110 e
1D
b10 E
b10 l
b10 '"
b10 F
b10 k
b10 &"
1(
#620000
b111011 0
0(
#625000
0W"
0D
1;
b1 <
b1 P
b1 r
b1 Z"
1(
#630000
b111100 0
0(
#635000
b10110010101111101010101 f
0;
b11 e
1(
#640000
b111101 0
0(
#645000
b1000011010111110100010001000101010011000100000101011001 f
b1100 V"
1W"
b0 M"
1I
b100 c
b110 e
1D
b0 E
b0 l
b0 '"
b1 a
1h
1(
#650000
b111110 0
0(
#655000
0W"
1;
0D
1(
#660000
b111111 0
0(
#665000
b10110010101111101000100 f
b100 e
0;
1(
#670000
b1000000 0
0(
#675000
b1000011010111110100011001001111010101010100111001000100 f
b101 e
b10 a
1(
#680000
b1000001 0
0(
#685000
1b
1(
#690000
b1000010 0
0(
#695000
b100010001000101010011000100000101011001 `
b1101 V"
1W"
b10 X"
1O"
b1 M"
b1110 ^
b1111 _
1D
b10 C
b10 m
b10 %"
1B
b1 E
b1 l
b1 '"
0d
1(
#700000
b1000011 0
0(
#705000
b1001001010001000100110001000101 f
0O"
0W"
b100100 \"
0:
b10 6"
b100011001 S"
b110 ["
b110 ]"
0b
b0 e
0B
0D
1;
1(
#710000
b1000100 0
0(
#715000
b1000100010011110100111001000101 `
0;
b1110 _
1(
#720000
b1000101 0
0(
#725000
1G
1(
#730000
b1000110 0
0(
#735000
b0 X"
b10101110101111101000011010011110101001001000100 ~
0$
07
0@
1"
b0 }
1(
#740000
b1011 s
1)
b101 /
b101 9
b101 q
b1 .
b1 8
b1 p
b110000001100010101000010101010000011 -
b1011 3
b1000111 0
0(
#745000
b1001100010011110100000101000100 `
b1011 V"
b100010001000101010011000100000101011001 ~
1$
1W"
b101 M"
b1 N"
0G
b0 _
b110 }
1?
b101 =
b101 L
b101 {
b101 $"
b1 >
b1 O
b1 z
b1 #"
0"
1(
#750000
0)
b1001000 0
0(
#755000
0W"
1;
b0 <
b0 P
b0 r
b0 Z"
0?
1(
#760000
b1001001 0
0(
#765000
b10000110101111101000011010011110101001001000100 ~
b1 }
0;
1(
#770000
b1001010 0
0(
#775000
b10101110101111101000011010011110101001001000100 ~
0$
b0 }
1(
#780000
b1000 s
1)
b10 /
b10 9
b10 q
b110000001100010101000010101110000011 -
b1000 3
b1001011 0
0(
#785000
b1000 V"
b100010001000101010011000100000101011001 ~
1$
1W"
b10 M"
b110 }
1?
b10 =
b10 L
b10 {
b10 $"
1(
#790000
0)
b1001100 0
0(
#795000
0W"
1;
0?
1(
#800000
b1001101 0
0(
#805000
b10000110101111101000011010011110101001001000100 ~
b1 }
0;
1(
#810000
b1001110 0
0(
#815000
b10101110101111101000011010011110101001001000100 ~
0$
b0 }
1(
#820000
b11100 s
1)
b100 /
b100 9
b100 q
b100 .
b100 8
b100 p
b110000011100010101000010101110000011 -
b11100 3
b1001111 0
0(
#825000
b11100 V"
b100010001000101010011000100000101011001 ~
1$
1W"
b100 M"
b100 N"
b110 }
1?
b100 =
b100 L
b100 {
b100 $"
b100 >
b100 O
b100 z
b100 #"
1(
#830000
0)
b1010000 0
0(
#835000
0W"
1;
0?
1(
#840000
b1010001 0
0(
#845000
b10000110101111101000011010011110101001001000100 ~
b1 }
0;
1(
#850000
b1010010 0
0(
#855000
b10101110101111101000011010011110101001001000100 ~
0$
b0 }
1(
#860000
b1110 s
1)
b10 /
b10 9
b10 q
b10 .
b10 8
b10 p
b110000011100010101000110101110000011 -
b1110 3
b1010011 0
0(
#865000
b1110 V"
b100010001000101010011000100000101011001 ~
1$
1W"
b10 M"
b10 N"
b110 }
1?
b10 =
b10 L
b10 {
b10 $"
b10 >
b10 O
b10 z
b10 #"
1(
#870000
0)
b1010100 0
0(
#875000
0W"
1;
b1 <
b1 P
b1 r
b1 Z"
0?
1(
#880000
b1010101 0
0(
#885000
b10000110101111101000011010011110101001001000100 ~
b1 }
0;
1(
#890000
b1010110 0
0(
#895000
b10000110101111101010011010010010100111001001011 ~
b10 }
1(
#900000
b1010111 0
0(
#905000
b1101 V"
b1 M"
b10 X"
17
1@
1(
#910000
b1011000 0
0(
#915000
b100001101001000010001010100001101001011 `
b11 J
0I
b1 K
b0 a
0h
b10 _
b10 o
1(
#920000
b1011001 0
0(
#925000
1d
1(
#930000
b1011010 0
0(
#935000
b1000011010111110100010001000101010011000100000101011001 f
b1000 V"
1W"
b10 M"
b1 N"
b1 c
b110 e
1D
b10 E
b10 l
b10 '"
b1 F
b1 k
b1 &"
1(
#940000
b1011011 0
0(
#945000
0W"
0D
1;
b0 <
b0 P
b0 r
b0 Z"
1(
#950000
b1011100 0
0(
#955000
b10110000101111101001100 f
0;
b1 e
1(
#960000
b1011101 0
0(
#965000
b1000011010111110100010001000101010011000100000101011001 f
b10100 V"
1W"
b11 N"
b10 c
b110 e
1D
b11 F
b11 k
b11 &"
1(
#970000
b1011110 0
0(
#975000
0W"
1;
0D
1(
#980000
b1011111 0
0(
#985000
b10110000101111101010010 f
b10 e
0;
1(
#990000
b1100000 0
0(
#995000
b1000011010111110100010001000101010011000100000101011001 f
b1111 V"
1W"
b11 M"
b10 N"
b11 c
b110 e
1D
b11 E
b11 l
b11 '"
b10 F
b10 k
b10 &"
1(
#1000000
b1100001 0
0(
#1005000
0W"
0D
1;
1(
#1010000
b1100010 0
0(
#1015000
b10110010101111101010101 f
0;
b11 e
1(
#1020000
b1100011 0
0(
#1025000
b1000011010111110100010001000101010011000100000101011001 f
b1101 V"
1W"
b1 M"
b100 c
b110 e
1D
b1 E
b1 l
b1 '"
1(
#1030000
b1100100 0
0(
#1035000
0W"
1;
b10 <
b10 P
b10 r
b10 Z"
0D
1(
#1040000
b1100101 0
0(
#1045000
b10110010101111101000100 f
b100 e
0;
1(
#1050000
b1100110 0
0(
#1055000
b1000011010111110100011001001111010101010100111001000100 f
1I
b101 e
b1 j
b10 i
b1 a
1g
1(
#1060000
b1100111 0
0(
#1065000
1b
1(
#1070000
b1101000 0
0(
#1075000
b100001101001100010001010100000101010010 `
b1110 V"
1W"
b0 X"
1O"
b10 M"
b1000 _
1D
b0 C
b0 m
b0 %"
1B
b10 E
b10 l
b10 '"
0d
1(
#1080000
b1101001 0
0(
#1085000
b1001001010001000100110001000101 f
b100001101001000010001010100001101001011 `
b10 J
0I
b0 K
b0 7"
b100001001 S"
b110 ["
b110 ]"
b100100 \"
0:
0b
b0 e
b10 _
b0 a
0g
b1 o
1;
b1 <
b1 P
b1 r
b1 Z"
1(
#1090000
b1101010 0
0(
#1095000
b0 <
b0 P
b0 r
b0 Z"
1;
1d
1(
#1100000
b1101011 0
0(
#1105000
b1000011010111110100010001000101010011000100000101011001 f
b111 V"
0O"
b1 M"
b1 N"
b1 c
b110 e
0B
b1 E
b1 l
b1 '"
b1 F
b1 k
b1 &"
1;
1(
#1110000
b1101100 0
0(
#1115000
b10110000101111101001100 f
0W"
1;
b1 e
0D
1(
#1120000
b1101101 0
0(
#1125000
b1000011010111110100010001000101010011000100000101011001 f
b10011 V"
1W"
b11 N"
b10 c
b110 e
1D
b11 F
b11 k
b11 &"
0;
1(
#1130000
b1101110 0
0(
#1135000
0W"
1;
0D
1(
#1140000
b1101111 0
0(
#1145000
b10110000101111101010010 f
b10 e
0;
1(
#1150000
b1110000 0
0(
#1155000
b1000011010111110100010001000101010011000100000101011001 f
b1110 V"
1W"
b10 M"
b10 N"
b11 c
b110 e
1D
b10 E
b10 l
b10 '"
b10 F
b10 k
b10 &"
1(
#1160000
b1110001 0
0(
#1165000
0W"
0D
1;
1(
#1170000
b1110010 0
0(
#1175000
b10110010101111101010101 f
0;
b11 e
1(
#1180000
b1110011 0
0(
#1185000
b1000011010111110100010001000101010011000100000101011001 f
b1100 V"
1W"
b0 M"
b100 c
b110 e
1D
b0 E
b0 l
b0 '"
1(
#1190000
b1110100 0
0(
#1195000
0W"
1;
b1 <
b1 P
b1 r
b1 Z"
0D
1(
#1200000
b1110101 0
0(
#1205000
b10110010101111101000100 f
b100 e
0;
1(
#1210000
b1110110 0
0(
#1215000
b1000011010111110100011001001111010101010100111001000100 f
1I
b101 e
b1 a
1h
1(
#1220000
b1110111 0
0(
#1225000
1b
1(
#1230000
b1111000 0
0(
#1235000
b100010001000101010011000100000101011001 `
b1101 V"
1W"
b10 X"
1O"
b1 M"
b1111 _
1D
b10 C
b10 m
b10 %"
1B
b1 E
b1 l
b1 '"
0d
1(
#1240000
b1111001 0
0(
#1245000
b1001001010001000100110001000101 f
0O"
0W"
0b
b0 e
0B
0D
1;
b10 <
b10 P
b10 r
b10 Z"
1(
#1250000
b1111010 0
0(
#1255000
b1000100010011110100111001000101 `
0;
b1110 _
1(
#1260000
b1111011 0
0(
#1265000
1G
1(
#1270000
b1111100 0
0(
#1275000
b1110 V"
b10 M"
b0 X"
b10101110101111101000011010011110101001001000100 ~
0$
07
0@
1"
b0 }
1(
#1280000
b10000 s
1)
b100 /
b100 9
b100 q
b110000011100010101010110101110000011 -
b10000 3
b1111101 0
0(
#1285000
b1001100010011110100000101000100 `
b10000 V"
b100010001000101010011000100000101011001 ~
1$
1W"
b100 M"
0G
b0 _
b110 }
1?
b100 =
b100 L
b100 {
b100 $"
0"
1(
#1290000
0)
b1111110 0
0(
#1295000
0W"
1;
b1 <
b1 P
b1 r
b1 Z"
0?
1(
#1300000
b1111111 0
0(
#1305000
b10000110101111101000011010011110101001001000100 ~
b1 }
0;
1(
#1310000
b10000000 0
0(
#1315000
b10000110101111101010011010010010100111001001011 ~
b10 }
1(
#1320000
b10000001 0
0(
#1325000
b1101 V"
b1 M"
b10 X"
17
1@
1(
#1330000
b10000010 0
0(
#1335000
b100001101001000010001010100001101001011 `
b101 J
0I
b11 K
b0 a
0h
b10 _
b100 o
1(
#1340000
b10000011 0
0(
#1345000
1d
1(
#1350000
b10000100 0
0(
#1355000
b1000011010111110100010001000101010011000100000101011001 f
b1010 V"
1W"
b100 M"
b1 N"
b1 c
b110 e
1D
b100 E
b100 l
b100 '"
b1 F
b1 k
b1 &"
1(
#1360000
b10000101 0
0(
#1365000
0W"
0D
1;
b0 <
b0 P
b0 r
b0 Z"
1(
#1370000
b10000110 0
0(
#1375000
b10110000101111101001100 f
0;
b1 e
1(
#1380000
b10000111 0
0(
#1385000
b1000011010111110100010001000101010011000100000101011001 f
b10110 V"
1W"
b11 N"
b10 c
b110 e
1D
b11 F
b11 k
b11 &"
1(
#1390000
b10001000 0
0(
#1395000
0W"
1;
0D
1(
#1400000
b10001001 0
0(
#1405000
b10110000101111101010010 f
b10 e
0;
1(
#1410000
b10001010 0
0(
#1415000
b1000011010111110100010001000101010011000100000101011001 f
b10001 V"
1W"
b101 M"
b10 N"
b11 c
b110 e
1D
b101 E
b101 l
b101 '"
b10 F
b10 k
b10 &"
1(
#1420000
b10001011 0
0(
#1425000
0W"
0D
1;
1(
#1430000
b10001100 0
0(
#1435000
b10110010101111101010101 f
0;
b11 e
1(
#1440000
b10001101 0
0(
#1445000
b1000011010111110100010001000101010011000100000101011001 f
b1111 V"
1W"
b11 M"
b100 c
b110 e
1D
b11 E
b11 l
b11 '"
1(
#1450000
b10001110 0
0(
#1455000
0W"
1;
0D
1(
#1460000
b10001111 0
0(
#1465000
b10110010101111101000100 f
b100 e
0;
1(
#1470000
b10010000 0
0(
#1475000
b1000011010111110100011001001111010101010100111001000100 f
b101 e
1(
